<?xml version="1.0" encoding="UTF-8"?>
<!DOCTYPE svg PUBLIC "-//W3C//DTD SVG 1.1//EN" "http://www.w3.org/Graphics/SVG/1.1/DTD/svg11.dtd">
<!-- Creator: CorelDRAW X7 -->
<svg xmlns="http://www.w3.org/2000/svg" xml:space="preserve" width="2489px" height="548px" version="1.1" shape-rendering="geometricPrecision" text-rendering="geometricPrecision" image-rendering="optimizeQuality" fill-rule="evenodd" clip-rule="evenodd"
viewBox="0 0 2286 504"
 xmlns:xlink="http://www.w3.org/1999/xlink">
 <g id="Camada_x0020_1">
  <metadata id="CorelCorpID_0Corel-Layer"/>
  <g id="_838327680">
   <path fill="#442569" d="M298 260c6,-2 13,-4 19,-6 6,-101 -21,-205 -58,-254 -26,20 -47,62 -49,91 43,50 79,104 88,169z"/>
   <g>
    <path fill="#FBB019" d="M243 334c-3,6 -7,12 -11,17 63,80 152,140 212,153 7,-32 -5,-78 -24,-101 -64,-9 -127,-26 -177,-69z"/>
    <path fill="#0F858F" d="M234 288c-6,-3 -12,-6 -18,-9 -74,69 -126,163 -133,224 32,4 76,-12 98,-32 3,-65 14,-129 53,-183z"/>
   </g>
   <g>
    <path fill="#FF4900" d="M299 321c4,5 8,11 12,16 97,-30 185,-92 218,-144 -28,-18 -75,-23 -103,-13 -31,56 -69,110 -127,141z"/>
    <path fill="#4A6D33" d="M255 244c1,-7 2,-13 3,-20 -92,-44 -199,-59 -258,-43 8,32 39,67 66,80 62,-20 126,-34 189,-17z"/>
   </g>
  </g>
  <path fill="white" fill-rule="nonzero" d="M688 280l8 0c18,0 30,-2 35,-6 6,-3 9,-10 9,-20 0,-10 -3,-17 -9,-21 -6,-5 -18,-7 -35,-7l-8 0 0 54zm-1 26l0 87 -30 0 0 -194 48 0c14,0 24,1 31,2 6,2 12,5 17,8 6,5 11,11 14,18 4,8 6,16 6,25 0,10 -2,18 -6,26 -3,8 -8,14 -14,18 -5,4 -11,6 -17,8 -7,1 -17,2 -31,2l-7 0 -11 0z"/>
  <path id="1" fill="white" fill-rule="nonzero" d="M959 297c-1,-1 -1,-5 -2,-12 -1,-6 -1,-11 -2,-14 -1,4 -2,9 -3,13 -2,4 -3,9 -6,13l-50 104 -51 -106c-2,-4 -4,-8 -5,-12 -2,-4 -3,-8 -4,-12 0,4 -1,8 -1,12 -1,5 -2,10 -3,14l-21 96 -29 0 46 -202 57 122c1,2 2,5 4,10 2,4 4,10 7,16 2,-5 5,-12 9,-21 1,-2 1,-4 2,-5l56 -122 46 202 -29 0 -21 -96z"/>
  <path id="2" fill="white" fill-rule="nonzero" d="M1200 296c0,-9 -2,-19 -5,-28 -4,-8 -9,-16 -16,-23 -6,-7 -14,-12 -22,-16 -9,-3 -18,-5 -27,-5 -10,0 -19,2 -28,5 -8,4 -16,9 -22,16 -7,7 -12,15 -16,23 -3,9 -5,18 -5,28 0,10 2,19 5,28 4,9 9,17 16,23 6,7 14,13 22,16 9,4 18,6 28,6 9,0 18,-2 27,-6 8,-3 16,-9 22,-16 7,-6 12,-14 16,-23 3,-9 5,-18 5,-28zm33 0c0,14 -3,27 -8,39 -5,13 -12,23 -22,33 -10,10 -21,17 -34,22 -12,5 -26,8 -39,8 -14,0 -28,-3 -40,-8 -13,-5 -24,-12 -34,-22 -10,-10 -17,-20 -22,-33 -5,-12 -8,-25 -8,-39 0,-14 3,-27 8,-39 5,-12 12,-23 22,-33 10,-9 21,-17 34,-22 12,-5 26,-7 40,-7 14,0 27,2 39,7 13,5 24,13 34,22 10,10 17,21 22,33 5,13 8,26 8,39z"/>
  <path id="3" fill="white" fill-rule="nonzero" d="M1340 354l25 -12c2,9 6,16 13,20 6,5 14,7 24,7 10,0 17,-3 22,-8 6,-5 9,-12 9,-21 0,-11 -10,-21 -29,-30 -2,-1 -4,-2 -6,-3 -21,-10 -35,-20 -42,-28 -7,-9 -11,-19 -11,-31 0,-16 5,-29 16,-38 11,-10 25,-15 42,-15 14,0 26,3 36,8 10,6 16,13 20,24l-25 13c-3,-7 -8,-11 -12,-14 -5,-3 -10,-4 -16,-4 -9,0 -16,2 -20,7 -5,4 -8,10 -8,17 0,12 11,23 33,33 2,1 3,1 4,2 19,8 32,17 39,25 7,9 11,19 11,32 0,18 -6,33 -17,44 -12,10 -28,16 -47,16 -17,0 -30,-4 -41,-12 -10,-7 -17,-18 -20,-32z"/>
  <path id="4" fill="white" fill-rule="nonzero" d="M1665 296c0,-9 -2,-19 -5,-28 -4,-8 -9,-16 -16,-23 -6,-7 -14,-12 -23,-16 -8,-3 -17,-5 -27,-5 -9,0 -18,2 -27,5 -8,4 -16,9 -23,16 -6,7 -12,15 -15,23 -4,9 -5,18 -5,28 0,10 1,19 5,28 3,9 9,17 15,23 7,7 15,13 23,16 9,4 18,6 27,6 10,0 19,-2 27,-6 9,-3 16,-9 23,-16 7,-6 12,-14 16,-23 3,-9 5,-18 5,-28zm33 0c0,14 -3,27 -8,39 -5,13 -13,23 -23,33 -10,10 -21,17 -33,22 -13,5 -26,8 -40,8 -14,0 -27,-3 -40,-8 -12,-5 -23,-12 -33,-22 -10,-10 -17,-20 -22,-33 -6,-12 -8,-25 -8,-39 0,-14 2,-27 8,-39 5,-12 12,-23 22,-33 10,-9 21,-17 34,-22 12,-5 25,-7 39,-7 14,0 27,2 40,7 12,5 24,13 33,22 10,10 18,21 23,33 5,13 8,26 8,39z"/>
  <path id="5" fill="white" fill-rule="nonzero" d="M1889 246c-9,-7 -18,-13 -28,-17 -10,-4 -21,-5 -32,-5 -21,0 -38,6 -51,20 -13,13 -20,31 -20,53 0,20 6,38 19,51 13,14 30,21 49,21 12,0 23,-2 33,-6 10,-5 20,-11 30,-19l0 36c-9,6 -18,10 -28,13 -10,3 -21,5 -32,5 -15,0 -29,-3 -41,-7 -13,-5 -24,-12 -33,-22 -10,-9 -17,-20 -22,-33 -5,-12 -8,-25 -8,-40 0,-14 3,-27 8,-40 5,-12 12,-23 22,-32 9,-10 20,-17 33,-22 12,-5 26,-7 40,-7 12,0 22,1 33,5 10,3 20,8 30,15l-2 31z"/>
  <polygon id="6" fill="white" fill-rule="nonzero" points="1928,393 1928,199 1960,199 1960,393 "/>
  <path id="7" fill="white" fill-rule="nonzero" d="M2046 317l54 0 -20 -44c-1,-3 -2,-7 -3,-10 -2,-4 -3,-8 -4,-12 -1,4 -2,8 -4,11 -1,4 -2,7 -3,11l-20 44zm87 76l-22 -50 -77 0 -22 50 -33 0 94 -201 93 201 -33 0z"/>
  <polygon id="8" fill="white" fill-rule="nonzero" points="2184,393 2184,199 2216,199 2216,365 2286,365 2286,393 "/>
 </g>
</svg>
